<?xml version="1.0" encoding="utf-8"?>
<svg version="1.1" xmlns="http://www.w3.org/2000/svg" xmlns:xlink="http://www.w3.org/1999/xlink" x="0px" y="0px"
	 width="32px" height="32px" viewBox="0 0 32 32" xml:space="preserve">
<g>
	<path fill="#005695" d="M4.923,16L17.301,3.444c0.781-0.787,0.781-2.066,0-2.853c-0.781-0.787-2.046-0.787-2.825,0L0.694,14.573
		c-0.749,0.757-0.753,2.094,0,2.855L14.479,31.41c0.779,0.787,2.046,0.787,2.825,0c0.781-0.787,0.781-2.066,0-2.853L4.923,16z"/>
	<path fill="#005695" d="M18.908,16L31.286,3.444c0.781-0.787,0.781-2.066,0-2.853c-0.781-0.787-2.046-0.787-2.825,0L14.678,14.573
		c-0.749,0.757-0.753,2.094,0,2.855L28.461,31.41c0.781,0.787,2.046,0.787,2.825,0c0.781-0.787,0.781-2.066,0-2.853L18.908,16z"/>
</g>
</svg>
