<?xml version="1.0" encoding="utf-8"?>
<!-- Generator: Adobe Illustrator 19.2.0, SVG Export Plug-In . SVG Version: 6.00 Build 0)  -->
<svg version="1.1" xmlns="http://www.w3.org/2000/svg" xmlns:xlink="http://www.w3.org/1999/xlink" x="0px" y="0px"
	 viewBox="0 0 80 80" style="enable-background:new 0 0 80 80;" xml:space="preserve">
<style type="text/css">
	.st0{fill:none;stroke:#00ADEF;stroke-width:2;stroke-linecap:round;stroke-linejoin:round;stroke-miterlimit:10;}
</style>
<g id="Layer_2">
</g>
<g id="Layer_1">
	<g>
		<path class="st0" d="M64,30.7v-26 M63.5,28.3H51.8c-0.9-5.6-5.8-9.9-11.8-9.9s-10.8,4.3-11.8,9.9H16.5 M68.3,49.6V31.5 M50.3,46.7
			H29.7 M50.3,44.8V65 M64,30.7c0.1,0,0.3,0,0.4,0c5.5,0,10,4.6,10,10.2s-4.5,10.2-10,10.2c0,0-0.1,0-0.1,0 M64.2,44.8H50.3
			c-0.8-5-5.1-8.7-10.3-8.7s-9.5,3.8-10.3,8.7H15.8 M11.7,49.6V31.5 M29.7,59.1h20.7 M29.7,52.9h20.7 M29.7,44.8V65 M16,30.7
			c-0.1,0-0.2,0-0.3,0c-5.5,0-10,4.6-10,10.2s4.5,10.2,10,10.2c0,0,0.1,0,0.1,0 M15.8,34.2C15.8,20.8,26.6,10,40,10
			s24.2,10.9,24.2,24.2 M15.8,34.2V47v4.1L40,75.3l24.2-24.2V47V34.2"/>
	</g>
</g>
</svg>
