<?xml version="1.0" encoding="utf-8"?>
<svg version="1.1" xmlns="http://www.w3.org/2000/svg" xmlns:xlink="http://www.w3.org/1999/xlink" x="0px" y="0px"
	 width="612px" height="612px" viewBox="0 90 612 612" xml:space="preserve">
<circle fill="#FFFFFF" cx="306" cy="396" r="200"/>
<path fill="#7D7D7D" d="M306,90C137.7,90,0,227.7,0,396s137.7,306,306,306s306-137.7,306-306S474.3,90,306,90z M385.9,472.5
	c-15.3-3.4-23.8-11.9-32.3-23.8c-5.1-6.8-10.2-18.7-20.4-17c-10.2,3.4-5.1,23.8-10.2,32.3s-20.4,6.8-32.3,5.1
	C255,464,238,445.3,221,421.5s-30.6-49.3-42.5-76.5c-5.1-8.5-8.5-18.7-8.5-28.9c6.8-5.1,15.3-3.4,23.8-3.4c6.8,0,22.1-1.7,25.5,1.7
	c3.4,1.7,8.5,11.9,8.5,18.7c6.8,15.3,11.9,25.5,20.4,39.1c3.4,6.8,8.5,15.3,15.3,13.6c6.8-1.7,6.8-17,6.8-27.2
	c0-11.9,0-25.5-3.4-32.3c-3.4-6.8-6.8-6.8-13.6-8.5c5.1-8.5,17-10.2,32.3-10.2c11.9,0,30.6-1.7,35.7,8.5c5.1,8.5,1.7,25.5,1.7,37.4
	c0,13.6-3.4,27.2,6.8,35.7c6.8-1.7,10.2-6.8,13.6-13.6c8.5-11.9,13.6-22.1,20.4-39.1c3.4-6.8,6.8-18.7,10.2-20.4
	c8.5-3.4,20.4,0,30.6,0c8.5,0,23.8-3.4,27.2,5.1c3.4,6.8-5.1,20.4-6.8,22.1c-8.5,15.3-17,23.8-25.5,37.4
	c-3.4,5.1-10.2,13.6-10.2,22.1c0,6.8,6.8,10.2,10.2,15.3c8.5,8.5,17,17,23.8,27.2c3.4,5.1,8.5,11.9,8.5,18.7
	C433.5,479.3,397.8,467.4,385.9,472.5z"/>
</svg>
